{
  "entrypoint": "index.html",
  "shell": "src/mto-editor/mto-editor.html",
  "fragments": [],
  "sourceGlobs": [
   "src/**/*",
   "images/**/*",
   "bower.json"
  ],
  "includeDependencies": [
    "manifest.json",
    "bower_components/webcomponentsjs/webcomponents-lite.min.js"
  ]
}
